@startuml

title __DIALOGS's Class Diagram__\n

  namespace gameEngine {
    namespace dialogs {
      class gameEngine.dialogs.EndGameDialog {
          ~ gameReport : Button
          ~ gameScore : TextView
          ~ gameType : TextView
          ~ iv1 : ImageView
          ~ iv2 : ImageView
          ~ newGame : Button
          ~ shareGame : Button
          ~ toolbar : Toolbar
          {static} - TAG : String
          - mContext : Context
          + EndGameDialog()
          # onCreate()
      }
    }
  }
  

  namespace gameEngine {
    namespace dialogs {
      class gameEngine.dialogs.GameOptionsDialog {
          ~ abort : Button
          ~ draw : Button
          ~ mContext : Context
          + GameOptionsDialog()
          + onClick()
          # onCreate()
          - validateAbortClick()
      }
    }
  }
  

  namespace gameEngine {
    namespace dialogs {
      interface gameEngine.dialogs.GameOptionsDialog.OnSelectedButton {
          {abstract} + run()
      }
    }
  }
  

  namespace gameEngine {
    namespace dialogs {
      class gameEngine.dialogs.PawnPromotionDialog {
          - _color : Boolean
          - _context : Context
          - bishop : ImageButton
          - knight : ImageButton
          - queen : ImageButton
          - rook : ImageButton
          + PawnPromotionDialog()
          + onClick()
          # onCreate()
      }
    }
  }
  

  namespace gameEngine {
    namespace dialogs {
      interface gameEngine.dialogs.PawnPromotionDialog.OnSelectedPiece {
          {abstract} + run()
      }
    }
  }
  

  gameEngine.dialogs.EndGameDialog -up-|> android.app.Dialog
  gameEngine.dialogs.EndGameDialog o-- gameEngine.classes.GameDB : db
  gameEngine.dialogs.GameOptionsDialog .up.|> android.view.View.OnClickListener
  gameEngine.dialogs.GameOptionsDialog -up-|> android.app.Dialog
  gameEngine.dialogs.GameOptionsDialog o-- gameEngine.dialogs.GameOptionsDialog.OnSelectedButton : onSelectedButton
  gameEngine.dialogs.GameOptionsDialog +-down- gameEngine.dialogs.GameOptionsDialog.OnSelectedButton
  gameEngine.dialogs.PawnPromotionDialog .up.|> android.view.View.OnClickListener
  gameEngine.dialogs.PawnPromotionDialog -up-|> android.app.Dialog
  gameEngine.dialogs.PawnPromotionDialog o-- gameEngine.dialogs.PawnPromotionDialog.OnSelectedPiece : _onSelectedPiece
  gameEngine.dialogs.PawnPromotionDialog +-down- gameEngine.dialogs.PawnPromotionDialog.OnSelectedPiece


right footer


PlantUML diagram generated by SketchIt! (https://bitbucket.org/pmesmeur/sketch.it)
For more information about this tool, please contact philippe.mesmeur@gmail.com
endfooter

@enduml
