{
  "project_info": {
    "project_number": "254060570201",
    "project_id": "chess-7b3ca",
    "storage_bucket": "chess-7b3ca.appspot.com"
  },
  "client": [
    {
      "client_info": {
        "mobilesdk_app_id": "1:254060570201:android:7a0bbe7710d6dc4644f348",
        "android_client_info": {
          "package_name": "com.example.chess"
        }
      },
      "oauth_client": [
        {
          "client_id": "254060570201-t2od5kdvpmagmvg8044iipglfkrdfnih.apps.googleusercontent.com",
          "client_type": 3
        }
      ],
      "api_key": [
        {
          "current_key": "AIzaSyDU_Q4XQDIPTW2VSyGUKE8xoq9ktIOajUk"
        }
      ],
      "services": {
        "appinvite_service": {
          "other_platform_oauth_client": [
            {
              "client_id": "254060570201-t2od5kdvpmagmvg8044iipglfkrdfnih.apps.googleusercontent.com",
              "client_type": 3
            }
          ]
        }
      }
    }
  ],
  "configuration_version": "1"
}