@startuml

title __SENDNOTIFICATIONPACK's Class Diagram__\n

  namespace gameEngine {
    namespace SendNotificationPack {
      interface gameEngine.SendNotificationPack.APIService {
          {abstract} + sendNotifcation()
      }
    }
  }
  

  namespace gameEngine {
    namespace SendNotificationPack {
      class gameEngine.SendNotificationPack.Client {
          {static} - retrofit : Retrofit
          {static} + getClient()
      }
    }
  }
  

  namespace gameEngine {
    namespace SendNotificationPack {
      class gameEngine.SendNotificationPack.Data {
          - Message : String
          - Title : String
          + Data()
          + Data()
          + getMessage()
          + getTitle()
          + setMessage()
          + setTitle()
      }
    }
  }
  

  namespace gameEngine {
    namespace SendNotificationPack {
      class gameEngine.SendNotificationPack.MyFirebaseMessagingService {
          {static} + TAG : String
          ~ message : String
          ~ title : String
          {static} - CHANNEL_ID : String
          + onMessageReceived()
          + onNewToken()
          + updateToken()
          - pushNotification()
      }
    }
  }
  

  namespace gameEngine {
    namespace SendNotificationPack {
      class gameEngine.SendNotificationPack.MyResponse {
          + success : int
      }
    }
  }
  

  namespace gameEngine {
    namespace SendNotificationPack {
      class gameEngine.SendNotificationPack.NotificationSender {
          + to : String
          + NotificationSender()
          + NotificationSender()
      }
    }
  }
  

  namespace gameEngine {
    namespace SendNotificationPack {
      class gameEngine.SendNotificationPack.SendNotification {
          ~ Message : EditText
          ~ Title : EditText
          ~ UserTB : EditText
          ~ send : Button
          {static} - TAG : String
          + sendNotifications()
          # onCreate()
          - UpdateToken()
      }
    }
  }
  

  namespace gameEngine {
    namespace SendNotificationPack {
      class gameEngine.SendNotificationPack.Token {
          - token : String
          + Token()
          + Token()
          + getToken()
          + setToken()
          + toMap()
      }
    }
  }
  

  gameEngine.SendNotificationPack.MyFirebaseMessagingService -up-|> com.google.firebase.messaging.FirebaseMessagingService
  gameEngine.SendNotificationPack.NotificationSender o-- gameEngine.SendNotificationPack.Data : data
  gameEngine.SendNotificationPack.SendNotification -up-|> androidx.appcompat.app.AppCompatActivity
  gameEngine.SendNotificationPack.SendNotification o-- gameEngine.SendNotificationPack.APIService : apiService


right footer


PlantUML diagram generated by SketchIt! (https://bitbucket.org/pmesmeur/sketch.it)
For more information about this tool, please contact philippe.mesmeur@gmail.com
endfooter

@enduml
